<?xml version="1.0" encoding="UTF-8" standalone="no"?>
<!DOCTYPE svg PUBLIC "-//W3C//DTD SVG 1.1//EN" "http://www.w3.org/Graphics/SVG/1.1/DTD/svg11.dtd">
<svg width="100%" height="100%" viewBox="0 0 133 133" version="1.1" xmlns="http://www.w3.org/2000/svg" xmlns:xlink="http://www.w3.org/1999/xlink" xml:space="preserve" xmlns:serif="http://www.serif.com/" style="fill-rule:evenodd;clip-rule:evenodd;stroke-linecap:round;stroke-linejoin:round;stroke-miterlimit:1.5;">
    <g transform="matrix(0.874924,0.859788,-0.859788,0.874924,65.9731,-27.0958)">
        <path d="M80.627,91.323C73.078,96.782 63.805,100 53.786,100C43.67,100 34.314,96.719 26.726,91.164" style="fill:none;stroke:rgb(224,89,132);stroke-width:11.89px;"/>
    </g>
    <g transform="matrix(0.874924,0.859788,-0.859788,0.874924,65.9731,-27.0958)">
        <path d="M26.726,91.164C15.32,82.814 7.906,69.326 7.906,54.12C7.906,49.144 8.7,44.352 10.168,39.864" style="fill:none;stroke:rgb(241,229,145);stroke-width:11.89px;"/>
    </g>
    <g transform="matrix(0.874924,0.859788,-0.859788,0.874924,65.9731,-27.0958)">
        <path d="M10.168,39.864C16.17,21.512 33.441,8.241 53.786,8.241" style="fill:none;stroke:rgb(0,205,107);stroke-width:11.89px;"/>
    </g>
    <g transform="matrix(0.874924,0.859788,-0.859788,0.874924,65.9731,-27.0958)">
        <path d="M53.786,8.241C74.043,8.241 91.251,21.397 97.325,39.624" style="fill:none;stroke:rgb(255,162,55);stroke-width:11.89px;"/>
    </g>
    <g transform="matrix(0.874924,0.859788,-0.859788,0.874924,65.9731,-27.0958)">
        <path d="M97.325,39.624C98.843,44.181 99.666,49.055 99.666,54.12C99.666,69.423 92.158,82.986 80.627,91.323" style="fill:none;stroke:rgb(102,94,255);stroke-width:11.89px;"/>
    </g>
    <g transform="matrix(0.874924,0.859788,-0.859788,0.874924,65.9731,-27.0958)">
        <path d="M80.627,91.323C73.078,96.782 63.805,100 53.786,100C43.67,100 34.314,96.719 26.726,91.164" style="fill:none;stroke:rgb(224,89,132);stroke-width:16.3px;"/>
    </g>
    <g transform="matrix(0.874924,0.859788,-0.859788,0.874924,65.9731,-27.0958)">
        <path d="M26.726,91.164C15.32,82.814 7.906,69.326 7.906,54.12C7.906,49.144 8.7,44.352 10.168,39.864" style="fill:none;stroke:rgb(241,229,145);stroke-width:16.3px;"/>
    </g>
    <g transform="matrix(0.874924,0.859788,-0.859788,0.874924,65.9731,-27.0958)">
        <path d="M10.168,39.864C16.17,21.512 33.441,8.241 53.786,8.241" style="fill:none;stroke:rgb(0,205,107);stroke-width:16.3px;"/>
    </g>
    <g transform="matrix(0.874924,0.859788,-0.859788,0.874924,65.9731,-27.0958)">
        <path d="M53.786,8.241C74.043,8.241 91.251,21.397 97.325,39.624" style="fill:none;stroke:rgb(255,162,55);stroke-width:16.3px;"/>
    </g>
    <g transform="matrix(0.874924,0.859788,-0.859788,0.874924,65.9731,-27.0958)">
        <path d="M97.325,39.624C98.843,44.181 99.666,49.055 99.666,54.12C99.666,69.423 92.158,82.986 80.627,91.323" style="fill:none;stroke:rgb(102,94,255);stroke-width:16.3px;"/>
    </g>
    <g transform="matrix(0.975597,0.743598,-0.743598,0.975597,53.656,-26.2185)">
        <path d="M74.843,94.886C73.838,95.407 72.812,95.891 71.766,96.338" style="fill:none;stroke:rgb(224,89,132);stroke-width:16.3px;"/>
    </g>
</svg>
