<?xml version="1.0" encoding="UTF-8" standalone="no"?>
<!DOCTYPE svg PUBLIC "-//W3C//DTD SVG 1.1//EN" "http://www.w3.org/Graphics/SVG/1.1/DTD/svg11.dtd">
<svg width="100%" height="100%" viewBox="0 0 232 232" version="1.1" xmlns="http://www.w3.org/2000/svg" xmlns:xlink="http://www.w3.org/1999/xlink" xml:space="preserve" xmlns:serif="http://www.serif.com/" style="fill-rule:evenodd;clip-rule:evenodd;stroke-linecap:round;stroke-linejoin:round;stroke-miterlimit:1.5;">
    <g transform="matrix(0.997445,0,0,0.997445,-13.441,-8.50024)">
        <path d="M49.147,45.333C69.641,24.547 98.12,11.655 129.587,11.655C161.054,11.655 189.533,24.547 210.027,45.333" style="fill:none;stroke:rgb(0,205,107);stroke-width:6.27px;"/>
    </g>
    <g transform="matrix(0.997445,0,0,0.997445,-13.441,-8.50024)">
        <path d="M210.027,45.333C230.144,65.737 242.566,93.746 242.566,124.634C242.566,155.521 230.144,183.531 210.027,203.934" style="fill:none;stroke:rgb(12,124,196);stroke-width:6.27px;"/>
    </g>
    <g transform="matrix(0.997445,0,0,0.997445,-13.441,-8.50024)">
        <path d="M210.027,203.934C189.533,224.72 161.054,237.612 129.587,237.612C98.699,237.612 70.69,225.19 50.286,205.074" style="fill:none;stroke:rgb(255,65,0);stroke-width:6.27px;"/>
    </g>
    <g transform="matrix(0.997445,0,0,0.997445,-13.441,-8.50024)">
        <path d="M50.286,205.074C29.501,184.58 16.608,156.1 16.608,124.634C16.608,93.746 29.03,65.737 49.147,45.333" style="fill:none;stroke:rgb(255,142,0);stroke-width:6.27px;"/>
    </g>
    <g transform="matrix(0.995516,-0.0620172,0.0557911,0.895573,-15.8753,-0.834098)">
        <path d="M49.147,45.333C51.398,43.05 53.746,40.862 56.183,38.776" style="fill:none;stroke:rgb(0,205,107);stroke-width:6.59px;"/>
    </g>
</svg>
